Engine/Binaries/Win64/UE4Game.pdb	2020-04-06T01:57:58.395Z
Engine/Content/SlateDebug/Fonts/LastResort.tps	2020-04-06T01:58:48.656Z
Engine/Content/SlateDebug/Fonts/LastResort.ttf	2020-04-06T01:58:48.669Z
Engine/Binaries/ThirdParty/PhysX3/Win64/VS2015/PxFoundationPROFILE_x64.pdb	2020-04-06T01:57:21.221Z
Engine/Binaries/ThirdParty/PhysX3/Win64/VS2015/PxPvdSDKPROFILE_x64.pdb	2020-04-06T01:57:21.236Z
Engine/Binaries/ThirdParty/PhysX3/Win64/VS2015/PhysX3PROFILE_x64.pdb	2020-04-06T01:57:21.080Z
Engine/Binaries/ThirdParty/PhysX3/Win64/VS2015/PhysX3CookingPROFILE_x64.pdb	2020-04-06T01:57:20.898Z
Engine/Binaries/ThirdParty/PhysX3/Win64/VS2015/PhysX3CommonPROFILE_x64.pdb	2020-04-06T01:57:20.886Z
Engine/Binaries/ThirdParty/PhysX3/Win64/VS2015/APEX_ClothingPROFILE_x64.pdb	2020-04-06T01:57:19.237Z
Engine/Binaries/ThirdParty/PhysX3/Win64/VS2015/APEX_LegacyPROFILE_x64.pdb	2020-04-06T01:57:19.711Z
Engine/Binaries/ThirdParty/PhysX3/Win64/VS2015/ApexFrameworkPROFILE_x64.pdb	2020-04-06T01:57:19.854Z
Engine/Binaries/ThirdParty/PhysX3/Win64/VS2015/NvClothPROFILE_x64.pdb	2020-04-06T01:57:19.973Z
